Lab Finals/4/RC1.csv

Record Length,2500,Points,0.0,-1.4800000,,Record Length,2500,Points,0.0,-560.000002384E-3,
Sample Interval,1.0000000E-3,s,1.0000000E-3,-1.5599999,,Sample Interval,1.0000000E-3,s,1.0000000E-3,-560.000002384E-3,
Trigger Point,0.0,Samples,2.0000001E-3,-1.5200000,,Trigger Point,0.0,Samples,2.0000001E-3,-479.999989271E-3,
,,,3.00000003E-3,-1.5999999,,,,,3.00000003E-3,-519.999980927E-3,
,,,4.00000019E-3,-1.6400000,,,,,4.00000019E-3,-519.999980927E-3,
,,,5.00000035E-3,-1.6400000,,,,,5.00000035E-3,-479.999989271E-3,
Source,CH1,,6.00000005E-3,-1.6799999,,Source,CH2,,6.00000005E-3,-519.999980927E-3,
Vertical Units,Volts,,7.00000022E-3,-1.6799999,,Vertical Units,Volts,,7.00000022E-3,-439.999997616E-3,
Vertical Scale,999.999977648E-3,,8.000000380E-3,-1.7199999,,Vertical Scale,999.999977648E-3,,8.000000380E-3,-479.999989271E-3,
Vertical Offset,0,,9.000000544E-3,-1.7199999,,Vertical Offset,0,,9.000000544E-3,-439.999997616E-3,
Horizontal Units,s,,10.0000007E-3,-1.8000000,,Horizontal Units,s,,10.0000007E-3,-439.999997616E-3,
Horizontal Scale,250.00001187E-3,,11.0000009E-3,-1.7600000,,Horizontal Scale,250.00001187E-3,,11.0000009E-3,-439.999997616E-3,
Pt Fmt,Y,,12.0000001E-3,-1.8399999,,Pt Fmt,Y,,12.0000001E-3,-439.999997616E-3,
Yzero,80.000000000E-3,,13.0000003E-3,-1.8800000,,Yzero,40.00000000E-3,,13.0000003E-3,-359.99998450E-3,
Probe Atten,10.0000000,,14.0000004E-3,-1.8800000,,Probe Atten,10.0000000,,14.0000004E-3,-319.99999285E-3,
,,,15.0000006E-3,-1.8800000,,,,,15.0000006E-3,-319.99999285E-3,
Note,TBS 1052B-EDU - 4:25:17 PM   12/13/2019,,16.0000008E-3,-1.9200000,,Note,TBS 1052B-EDU - 4:25:17 PM   12/13/2019,,16.0000008E-3,-319.99999285E-3,
,,,17.0000009E-3,-1.9200000,,,,,17.0000009E-3,-239.99999464E-3,
,,,18.0000011E-3,-1.9200000,,,,,18.0000011E-3,-319.99999285E-3,
,,,19.0000013E-3,-2.0000000,,,,,19.0000013E-3,-280.00000119E-3,
,,,20.0000014E-3,-1.9599999,,,,,20.0000014E-3,-239.99999464E-3,
,,,21.00000158E-3,-2.0000000,,,,,21.00000158E-3,-199.99998808E-3,
,,,22.00000174E-3,-2.0400000,,,,,22.00000174E-3,-199.99998808E-3,
,,,23.00000191E-3,-2.0400000,,,,,23.00000191E-3,-159.99999642E-3,
,,,24.00000021E-3,-2.0799999,,,,,24.00000021E-3,-159.99999642E-3,
,,,25.00000037E-3,-2.1199999,,,,,25.00000037E-3,-119.9999973E-3,
,,,26.00000054E-3,-2.0799999,,,,,26.00000054E-3,-79.999998212E-3,
,,,27.00000070E-3,-2.0799999,,,,,27.00000070E-3,0.0,
,,,28.00000086E-3,-2.0799999,,,,,28.00000086E-3,-39.99999911E-3,
,,,29.00000103E-3,-2.0799999,,,,,29.00000103E-3,0.0,
,,,30.00000119E-3,-2.1599998,,,,,30.00000119E-3,0.0,
,,,31.00000136E-3,-2.1199999,,,,,31.00000136E-3,0.0,
,,,32.00000152E-3,-2.1199999,,,,,32.00000152E-3,39.99999911E-3,
,,,32.99999982E-3,-2.2000000,,,,,32.99999982E-3,39.99999911E-3,
,,,34.00000185E-3,-2.1599998,,,,,34.00000185E-3,119.9999973E-3,
,,,35.00000015E-3,-2.1599998,,,,,35.00000015E-3,39.99999911E-3,
,,,36.00000218E-3,-2.2000000,,,,,36.00000218E-3,39.99999911E-3,
,,,37.00000048E-3,-2.2000000,,,,,37.00000048E-3,119.9999973E-3,
,,,38.00000250E-3,-2.2400000,,,,,38.00000250E-3,79.999998212E-3,
,,,39.00000080E-3,-2.2000000,,,,,39.00000080E-3,119.9999973E-3,
,,,40.00000283E-3,-2.2000000,,,,,40.00000283E-3,119.9999973E-3,
,,,41.00000113E-3,-2.2400000,,,,,41.00000113E-3,159.99999642E-3,
,,,42.00000316E-3,-2.2000000,,,,,42.00000316E-3,159.99999642E-3,
,,,43.00000146E-3,-2.2000000,,,,,43.00000146E-3,239.99999464E-3,
,,,44.00000349E-3,-2.2000000,,,,,44.00000349E-3,159.99999642E-3,
,,,45.00000179E-3,-2.2000000,,,,,45.00000179E-3,239.99999464E-3,
,,,46.00000381E-3,-2.2000000,,,,,46.00000381E-3,280.00000119E-3,
,,,47.00000212E-3,-2.1599998,,,,,47.00000212E-3,359.99998450E-3,
,,,48.00000042E-3,-2.1599998,,,,,48.00000042E-3,280.00000119E-3,
,,,49.00000244E-3,-2.1599998,,,,,49.00000244E-3,280.00000119E-3,
,,,50.00000075E-3,-2.1199999,,,,,50.00000075E-3,319.99999285E-3,
,,,51.00000277E-3,-2.1599998,,,,,51.00000277E-3,359.99998450E-3,
,,,52.00000107E-3,-2.1199999,,,,,52.00000107E-3,319.99999285E-3,
,,,53.00000310E-3,-2.1199999,,,,,53.00000310E-3,359.99998450E-3,
,,,54.00000140E-3,-2.0799999,,,,,54.00000140E-3,319.99999285E-3,
,,,55.000003427E-3,-2.0799999,,,,,55.000003427E-3,399.99997616E-3,
,,,56.000001729E-3,-2.0799999,,,,,56.000001729E-3,479.999989271E-3,
,,,57.000003755E-3,-2.0400000,,,,,57.000003755E-3,439.999997616E-3,
,,,58.000002056E-3,-2.0400000,,,,,58.000002056E-3,399.99997616E-3,
,,,59.000004083E-3,-2.0400000,,,,,59.000004083E-3,479.999989271E-3,
,,,60.000002384E-3,-2.0000000,,,,,60.000002384E-3,479.999989271E-3,
,,,61.000004411E-3,-2.0000000,,,,,61.000004411E-3,479.999989271E-3,
,,,62.000002712E-3,-1.9599999,,,,,62.000002712E-3,519.999980927E-3,
,,,63.000001013E-3,-1.9599999,,,,,63.000001013E-3,560.000002384E-3,
,,,64.000003040E-3,-1.9200000,,,,,64.000003040E-3,519.999980927E-3,
,,,65.000005066E-3,-1.8800000,,,,,65.000005066E-3,560.000002384E-3,
,,,65.999999642E-3,-1.9200000,,,,,65.999999642E-3,560.000002384E-3,
,,,67.000001669E-3,-1.8800000,,,,,67.000001669E-3,560.000002384E-3,
,,,68.000003695E-3,-1.8399999,,,,,68.000003695E-3,599.999964237E-3,
,,,69.000005722E-3,-1.8399999,,,,,69.000005722E-3,560.000002384E-3,
,,,70.000000298E-3,-1.7600000,,,,,70.000000298E-3,639.999985695E-3,
,,,71.000002325E-3,-1.7199999,,,,,71.000002325E-3,639.999985695E-3,
,,,72.000004351E-3,-1.7600000,,,,,72.000004351E-3,639.999985695E-3,
,,,73.000006378E-3,-1.6799999,,,,,73.000006378E-3,639.999985695E-3,
,,,74.000000954E-3,-1.6799999,,,,,74.000000954E-3,719.999969006E-3,
,,,75.000002980E-3,-1.6400000,,,,,75.000002980E-3,719.999969006E-3,
,,,76.000005007E-3,-1.6400000,,,,,76.000005007E-3,680.000007153E-3,
,,,77.000007033E-3,-1.6400000,,,,,77.000007033E-3,719.999969006E-3,
,,,78.000001609E-3,-1.5599999,,,,,78.000001609E-3,680.000007153E-3,
,,,79.000003636E-3,-1.5599999,,,,,79.000003636E-3,759.999990463E-3,
,,,80.000005662E-3,-1.5200000,,,,,80.000005662E-3,719.999969006E-3,
,,,81.000000238E-3,-1.4800000,,,,,81.000000238E-3,759.999990463E-3,
,,,82.000002265E-3,-1.4399999,,,,,82.000002265E-3,799.999952316E-3,
,,,83.000004292E-3,-1.4399999,,,,,83.000004292E-3,799.999952316E-3,
,,,84.000006318E-3,-1.3600000,,,,,84.000006318E-3,799.999952316E-3,
,,,85.000000894E-3,-1.3600000,,,,,85.000000894E-3,799.999952316E-3,
,,,86.000002921E-3,-1.3199999,,,,,86.000002921E-3,799.999952316E-3,
,,,87.000004947E-3,-1.3199999,,,,,87.000004947E-3,799.999952316E-3,
,,,88.000006974E-3,-1.2400000,,,,,88.000006974E-3,799.999952316E-3,
,,,89.000001550E-3,-1.2400000,,,,,89.000001550E-3,799.999952316E-3,
,,,90.000003576E-3,-1.1999999,,,,,90.000003576E-3,839.999973774E-3,
,,,91.000005603E-3,-1.1200000,,,,,91.000005603E-3,879.999995232E-3,
,,,92.000007629E-3,-1.0799999,,,,,92.000007629E-3,839.999973774E-3,
,,,93.000002205E-3,-1.0400000,,,,,93.000002205E-3,839.999973774E-3,
,,,94.000004232E-3,-1.0400000,,,,,94.000004232E-3,839.999973774E-3,
,,,95.000006258E-3,-1.000000,,,,,95.000006258E-3,839.999973774E-3,
,,,96.000000834E-3,-919.999957085E-3,,,,,96.000000834E-3,879.999995232E-3,
,,,97.000002861E-3,-879.999995232E-3,,,,,97.000002861E-3,879.999995232E-3,
,,,98.000004888E-3,-879.999995232E-3,,,,,98.000004888E-3,879.999995232E-3,
,,,99.000006914E-3,-839.999973774E-3,,,,,99.000006914E-3,879.999995232E-3,
,,,100.0000015E-3,-759.999990463E-3,,,,,100.0000015E-3,879.999995232E-3,
,,,101.0000035E-3,-759.999990463E-3,,,,,101.0000035E-3,839.999973774E-3,
,,,102.0000055E-3,-719.999969006E-3,,,,,102.0000055E-3,879.999995232E-3,
,,,103.0000076E-3,-639.999985695E-3,,,,,103.0000076E-3,919.999957085E-3,
,,,104.0000021E-3,-599.999964237E-3,,,,,104.0000021E-3,879.999995232E-3,
,,,105.0000042E-3,-560.000002384E-3,,,,,105.0000042E-3,879.999995232E-3,
,,,106.0000062E-3,-519.999980927E-3,,,,,106.0000062E-3,879.999995232E-3,
,,,107.0000082E-3,-479.999989271E-3,,,,,107.0000082E-3,879.999995232E-3,
,,,108.0000028E-3,-439.999997616E-3,,,,,108.0000028E-3,879.999995232E-3,
,,,109.0000048E-3,-399.99997616E-3,,,,,109.0000048E-3,839.999973774E-3,
,,,110.0000069E-3,-319.99999285E-3,,,,,110.0000069E-3,879.999995232E-3,
,,,111.0000089E-3,-319.99999285E-3,,,,,111.0000089E-3,879.999995232E-3,
,,,112.0000035E-3,-239.99999464E-3,,,,,112.0000035E-3,879.999995232E-3,
,,,113.0000055E-3,-199.99998808E-3,,,,,113.0000055E-3,879.999995232E-3,
,,,114.0000075E-3,-159.99999642E-3,,,,,114.0000075E-3,879.999995232E-3,
,,,115.0000021E-3,-79.999998212E-3,,,,,115.0000021E-3,839.999973774E-3,
,,,116.0000041E-3,-79.999998212E-3,,,,,116.0000041E-3,879.999995232E-3,
,,,117.0000061E-3,-39.99999911E-3,,,,,117.0000061E-3,839.999973774E-3,
,,,118.0000082E-3,0.0,,,,,118.0000082E-3,839.999973774E-3,
,,,119.0000027E-3,79.999998212E-3,,,,,119.0000027E-3,839.999973774E-3,
,,,120.0000048E-3,119.9999973E-3,,,,,120.0000048E-3,799.999952316E-3,
,,,121.0000068E-3,159.99999642E-3,,,,,121.0000068E-3,839.999973774E-3,
,,,122.0000088E-3,199.99998808E-3,,,,,122.0000088E-3,839.999973774E-3,
,,,123.0000034E-3,239.99999464E-3,,,,,123.0000034E-3,839.999973774E-3,
,,,124.0000054E-3,239.99999464E-3,,,,,124.0000054E-3,839.999973774E-3,
,,,125.0000000E-3,359.99998450E-3,,,,,125.0000000E-3,839.999973774E-3,
,,,126.0000020E-3,359.99998450E-3,,,,,126.0000020E-3,799.999952316E-3,
,,,127.0000041E-3,399.99997616E-3,,,,,127.0000041E-3,799.999952316E-3,
,,,128.0000061E-3,439.999997616E-3,,,,,128.0000061E-3,799.999952316E-3,
,,,129.0000081E-3,479.999989271E-3,,,,,129.0000081E-3,839.999973774E-3,
,,,130.0000101E-3,519.999980927E-3,,,,,130.0000101E-3,799.999952316E-3,
,,,131.0000122E-3,599.999964237E-3,,,,,131.0000122E-3,719.999969006E-3,
,,,131.9999993E-3,639.999985695E-3,,,,,131.9999993E-3,719.999969006E-3,
,,,133.0000013E-3,639.999985695E-3,,,,,133.0000013E-3,719.999969006E-3,
,,,134.0000033E-3,680.000007153E-3,,,,,134.0000033E-3,799.999952316E-3,
,,,135.0000054E-3,759.999990463E-3,,,,,135.0000054E-3,719.999969006E-3,
,,,136.0000074E-3,799.999952316E-3,,,,,136.0000074E-3,719.999969006E-3,
,,,137.0000094E-3,839.999973774E-3,,,,,137.0000094E-3,759.999990463E-3,
,,,138.0000114E-3,879.999995232E-3,,,,,138.0000114E-3,719.999969006E-3,
,,,139.0000135E-3,879.999995232E-3,,,,,139.0000135E-3,680.000007153E-3,
,,,140.0000006E-3,919.999957085E-3,,,,,140.0000006E-3,680.000007153E-3,
,,,141.0000026E-3,959.999978542E-3,,,,,141.0000026E-3,719.999969006E-3,
,,,142.0000046E-3,1.0400000,,,,,142.0000046E-3,639.999985695E-3,
,,,143.0000067E-3,1.0400000,,,,,143.0000067E-3,639.999985695E-3,
,,,144.0000087E-3,1.1200000,,,,,144.0000087E-3,599.999964237E-3,
,,,145.0000107E-3,1.1200000,,,,,145.0000107E-3,599.999964237E-3,
,,,146.0000128E-3,1.1600000,,,,,146.0000128E-3,560.000002384E-3,
,,,146.9999999E-3,1.1999999,,,,,146.9999999E-3,560.000002384E-3,
,,,148.0000019E-3,1.2400000,,,,,148.0000019E-3,599.999964237E-3,
,,,149.00000393E-3,1.2400000,,,,,149.00000393E-3,560.000002384E-3,
,,,150.00000596E-3,1.2800000,,,,,150.00000596E-3,599.999964237E-3,
,,,151.00000799E-3,1.3199999,,,,,151.00000799E-3,519.999980927E-3,
,,,152.00001001E-3,1.3600000,,,,,152.00001001E-3,599.999964237E-3,
,,,153.00001204E-3,1.4399999,,,,,153.00001204E-3,519.999980927E-3,
,,,154.00001407E-3,1.4399999,,,,,154.00001407E-3,519.999980927E-3,
,,,155.00000119E-3,1.4399999,,,,,155.00000119E-3,519.999980927E-3,
,,,156.00000322E-3,1.4800000,,,,,156.00000322E-3,479.999989271E-3,
,,,157.00000525E-3,1.5200000,,,,,157.00000525E-3,519.999980927E-3,
,,,158.00000727E-3,1.5200000,,,,,158.00000727E-3,439.999997616E-3,
,,,159.00000930E-3,1.5599999,,,,,159.00000930E-3,439.999997616E-3,
,,,160.00001132E-3,1.5999999,,,,,160.00001132E-3,439.999997616E-3,
,,,161.00001335E-3,1.6400000,,,,,161.00001335E-3,399.99997616E-3,
,,,162.00000048E-3,1.6400000,,,,,162.00000048E-3,439.999997616E-3,
,,,163.00000250E-3,1.6400000,,,,,163.00000250E-3,399.99997616E-3,
,,,164.00000453E-3,1.7199999,,,,,164.00000453E-3,359.99998450E-3,
,,,165.00000656E-3,1.7199999,,,,,165.00000656E-3,399.99997616E-3,
,,,166.00000858E-3,1.7199999,,,,,166.00000858E-3,319.99999285E-3,
,,,167.00001061E-3,1.7600000,,,,,167.00001061E-3,359.99998450E-3,
,,,168.00001264E-3,1.7600000,,,,,168.00001264E-3,280.00000119E-3,
,,,169.00001466E-3,1.8000000,,,,,169.00001466E-3,280.00000119E-3,
,,,170.00000179E-3,1.8399999,,,,,170.00000179E-3,239.99999464E-3,
,,,171.00000381E-3,1.8399999,,,,,171.00000381E-3,159.99999642E-3,
,,,172.00000584E-3,1.8800000,,,,,172.00000584E-3,199.99998808E-3,
,,,173.00000787E-3,1.8800000,,,,,173.00000787E-3,159.99999642E-3,
,,,174.00000989E-3,1.9200000,,,,,174.00000989E-3,159.99999642E-3,
,,,175.00001192E-3,1.9200000,,,,,175.00001192E-3,119.9999973E-3,
,,,176.00001395E-3,1.9200000,,,,,176.00001395E-3,159.99999642E-3,
,,,177.00000107E-3,1.9599999,,,,,177.00000107E-3,119.9999973E-3,
,,,178.00000310E-3,1.9599999,,,,,178.00000310E-3,39.99999911E-3,
,,,179.00000513E-3,2.0000000,,,,,179.00000513E-3,79.999998212E-3,
,,,180.00000715E-3,2.0400000,,,,,180.00000715E-3,39.99999911E-3,
,,,181.00000918E-3,2.0000000,,,,,181.00000918E-3,79.999998212E-3,
,,,182.00001121E-3,2.0400000,,,,,182.00001121E-3,39.99999911E-3,
,,,183.00001323E-3,2.0400000,,,,,183.00001323E-3,0.0,
,,,184.00001526E-3,2.0400000,,,,,184.00001526E-3,39.99999911E-3,
,,,185.00000238E-3,2.0400000,,,,,185.00000238E-3,-79.999998212E-3,
,,,186.00000441E-3,2.0400000,,,,,186.00000441E-3,0.0,
,,,187.00000644E-3,2.0799999,,,,,187.00000644E-3,-79.999998212E-3,
,,,188.00000846E-3,2.0799999,,,,,188.00000846E-3,-119.9999973E-3,
,,,189.00001049E-3,2.0799999,,,,,189.00001049E-3,-79.999998212E-3,
,,,190.00001252E-3,2.1199999,,,,,190.00001252E-3,-119.9999973E-3,
,,,191.00001454E-3,2.1199999,,,,,191.00001454E-3,-119.9999973E-3,
,,,192.00000167E-3,2.1199999,,,,,192.00000167E-3,-79.999998212E-3,
,,,193.00000370E-3,2.1199999,,,,,193.00000370E-3,-159.99999642E-3,
,,,194.00000572E-3,2.1199999,,,,,194.00000572E-3,-159.99999642E-3,
,,,195.00000775E-3,2.1199999,,,,,195.00000775E-3,-199.99998808E-3,
,,,196.00000978E-3,2.1199999,,,,,196.00000978E-3,-199.99998808E-3,
,,,197.00001180E-3,2.1199999,,,,,197.00001180E-3,-199.99998808E-3,
,,,198.00001383E-3,2.0799999,,,,,198.00001383E-3,-239.99999464E-3,
,,,199.00001585E-3,2.0799999,,,,,199.00001585E-3,-280.00000119E-3,
,,,200.00000298E-3,2.0400000,,,,,200.00000298E-3,-280.00000119E-3,
,,,201.00000501E-3,2.0799999,,,,,201.00000501E-3,-280.00000119E-3,
,,,202.00000703E-3,2.0400000,,,,,202.00000703E-3,-319.99999285E-3,
,,,203.00000906E-3,2.0400000,,,,,203.00000906E-3,-359.99998450E-3,
,,,204.00001109E-3,2.0400000,,,,,204.00001109E-3,-319.99999285E-3,
,,,205.00001311E-3,2.0000000,,,,,205.00001311E-3,-319.99999285E-3,
,,,206.00001514E-3,2.0400000,,,,,206.00001514E-3,-319.99999285E-3,
,,,207.00001717E-3,1.9599999,,,,,207.00001717E-3,-319.99999285E-3,
,,,208.00000429E-3,2.0000000,,,,,208.00000429E-3,-479.999989271E-3,
,,,209.00000632E-3,2.0000000,,,,,209.00000632E-3,-399.99997616E-3,
,,,210.00000834E-3,1.9599999,,,,,210.00000834E-3,-479.999989271E-3,
,,,211.00001037E-3,1.9200000,,,,,211.00001037E-3,-439.999997616E-3,
,,,212.00001240E-3,1.9200000,,,,,212.00001240E-3,-519.999980927E-3,
,,,213.00001442E-3,1.9200000,,,,,213.00001442E-3,-479.999989271E-3,
,,,214.00001645E-3,1.8800000,,,,,214.00001645E-3,-439.999997616E-3,
,,,215.00000358E-3,1.8399999,,,,,215.00000358E-3,-519.999980927E-3,
,,,216.00000560E-3,1.8399999,,,,,216.00000560E-3,-479.999989271E-3,
,,,217.00000763E-3,1.8399999,,,,,217.00000763E-3,-599.999964237E-3,
,,,218.00000966E-3,1.8000000,,,,,218.00000966E-3,-560.000002384E-3,
,,,219.00001168E-3,1.8000000,,,,,219.00001168E-3,-599.999964237E-3,
,,,220.00001371E-3,1.7199999,,,,,220.00001371E-3,-560.000002384E-3,
,,,221.00001574E-3,1.7199999,,,,,221.00001574E-3,-599.999964237E-3,
,,,222.00001776E-3,1.7199999,,,,,222.00001776E-3,-599.999964237E-3,
,,,223.00000489E-3,1.6799999,,,,,223.00000489E-3,-639.999985695E-3,
,,,224.00000691E-3,1.6799999,,,,,224.00000691E-3,-639.999985695E-3,
,,,225.00000894E-3,1.6799999,,,,,225.00000894E-3,-680.000007153E-3,
,,,226.00001097E-3,1.5999999,,,,,226.00001097E-3,-680.000007153E-3,
,,,227.00001299E-3,1.6400000,,,,,227.00001299E-3,-680.000007153E-3,
,,,228.00001502E-3,1.5599999,,,,,228.00001502E-3,-719.999969006E-3,
,,,229.00001705E-3,1.5599999,,,,,229.00001705E-3,-719.999969006E-3,
,,,230.00000417E-3,1.4800000,,,,,230.00000417E-3,-680.000007153E-3,
,,,231.00000620E-3,1.4800000,,,,,231.00000620E-3,-759.999990463E-3,
,,,232.00000823E-3,1.4399999,,,,,232.00000823E-3,-719.999969006E-3,
,,,233.00001025E-3,1.4399999,,,,,233.00001025E-3,-759.999990463E-3,
,,,234.00001228E-3,1.3600000,,,,,234.00001228E-3,-759.999990463E-3,
,,,235.00001431E-3,1.3600000,,,,,235.00001431E-3,-719.999969006E-3,
,,,236.00001633E-3,1.3199999,,,,,236.00001633E-3,-799.999952316E-3,
,,,237.00001836E-3,1.2800000,,,,,237.00001836E-3,-719.999969006E-3,
,,,238.00000548E-3,1.2800000,,,,,238.00000548E-3,-839.999973774E-3,
,,,239.00000751E-3,1.2400000,,,,,239.00000751E-3,-799.999952316E-3,
,,,240.00000954E-3,1.1999999,,,,,240.00000954E-3,-839.999973774E-3,
,,,241.00001156E-3,1.1600000,,,,,241.00001156E-3,-839.999973774E-3,
,,,242.00001359E-3,1.1200000,,,,,242.00001359E-3,-839.999973774E-3,
,,,243.00001562E-3,1.0799999,,,,,243.00001562E-3,-799.999952316E-3,
,,,244.00001764E-3,1.0400000,,,,,244.00001764E-3,-839.999973774E-3,
,,,245.00000477E-3,1.000000,,,,,245.00000477E-3,-799.999952316E-3,
,,,246.00000679E-3,1.000000,,,,,246.00000679E-3,-839.999973774E-3,
,,,247.00000882E-3,919.999957085E-3,,,,,247.00000882E-3,-879.999995232E-3,
,,,248.00001085E-3,839.999973774E-3,,,,,248.00001085E-3,-879.999995232E-3,
,,,249.00001287E-3,839.999973774E-3,,,,,249.00001287E-3,-839.999973774E-3,
,,,250.00000000E-3,839.999973774E-3,,,,,250.00000000E-3,-879.999995232E-3,
,,,251.00001693E-3,759.999990463E-3,,,,,251.00001693E-3,-879.999995232E-3,
,,,252.00000405E-3,719.999969006E-3,,,,,252.00000405E-3,-879.999995232E-3,
,,,253.00002098E-3,680.000007153E-3,,,,,253.00002098E-3,-919.999957085E-3,
,,,254.00000811E-3,639.999985695E-3,,,,,254.00000811E-3,-919.999957085E-3,
,,,255.00002503E-3,639.999985695E-3,,,,,255.00002503E-3,-879.999995232E-3,
,,,256.00001216E-3,560.000002384E-3,,,,,256.00001216E-3,-919.999957085E-3,
,,,256.99999928E-3,560.000002384E-3,,,,,256.99999928E-3,-879.999995232E-3,
,,,258.00001621E-3,479.999989271E-3,,,,,258.00001621E-3,-879.999995232E-3,
,,,259.00000334E-3,439.999997616E-3,,,,,259.00000334E-3,-919.999957085E-3,
,,,260.00002027E-3,399.99997616E-3,,,,,260.00002027E-3,-879.999995232E-3,
,,,261.00000739E-3,359.99998450E-3,,,,,261.00000739E-3,-879.999995232E-3,
,,,262.00002432E-3,319.99999285E-3,,,,,262.00002432E-3,-919.999957085E-3,
,,,263.00001144E-3,239.99999464E-3,,,,,263.00001144E-3,-879.999995232E-3,
,,,263.99999857E-3,199.99998808E-3,,,,,263.99999857E-3,-839.999973774E-3,
,,,265.00001550E-3,199.99998808E-3,,,,,265.00001550E-3,-799.999952316E-3,
,,,266.00000262E-3,119.9999973E-3,,,,,266.00000262E-3,-919.999957085E-3,
,,,267.00001955E-3,79.999998212E-3,,,,,267.00001955E-3,-799.999952316E-3,
,,,268.00000668E-3,39.99999911E-3,,,,,268.00000668E-3,-799.999952316E-3,
,,,269.00002360E-3,0.0,,,,,269.00002360E-3,-879.999995232E-3,
,,,270.00001073E-3,-39.99999911E-3,,,,,270.00001073E-3,-879.999995232E-3,
,,,271.00002766E-3,-119.9999973E-3,,,,,271.00002766E-3,-839.999973774E-3,
,,,272.00001478E-3,-119.9999973E-3,,,,,272.00001478E-3,-879.999995232E-3,
,,,273.00000191E-3,-199.99998808E-3,,,,,273.00000191E-3,-919.999957085E-3,
,,,274.00001884E-3,-239.99999464E-3,,,,,274.00001884E-3,-839.999973774E-3,
,,,275.00000596E-3,-280.00000119E-3,,,,,275.00000596E-3,-879.999995232E-3,
,,,276.00002289E-3,-319.99999285E-3,,,,,276.00002289E-3,-839.999973774E-3,
,,,277.00001001E-3,-359.99998450E-3,,,,,277.00001001E-3,-839.999973774E-3,
,,,278.00002694E-3,-439.999997616E-3,,,,,278.00002694E-3,-839.999973774E-3,
,,,279.00001407E-3,-479.999989271E-3,,,,,279.00001407E-3,-839.999973774E-3,
,,,280.00000119E-3,-479.999989271E-3,,,,,280.00000119E-3,-839.999973774E-3,
,,,281.00001812E-3,-560.000002384E-3,,,,,281.00001812E-3,-799.999952316E-3,
,,,282.00000525E-3,-599.999964237E-3,,,,,282.00000525E-3,-799.999952316E-3,
,,,283.00002217E-3,-639.999985695E-3,,,,,283.00002217E-3,-839.999973774E-3,
,,,284.00000930E-3,-680.000007153E-3,,,,,284.00000930E-3,-799.999952316E-3,
